<svg xmlns="http://www.w3.org/2000/svg" width="20" height="20" viewBox="0 0 20 20">
    <path fill="#333" fill-opacity=".7" fill-rule="evenodd" d="M4.322 8.884H18.27c.587 0 1.063.508 1.063 1.134 0 .626-.476 1.133-1.063 1.133H4.36l6.638 6.196c.441.412.486 1.128.1 1.6a1.018 1.018 0 0 1-1.5.106l-8.463-7.9a1.143 1.143 0 0 1-.332-.58 1.187 1.187 0 0 1-.136-.555c0-.193.045-.374.124-.533.043-.24.159-.466.344-.639L9.597.947a1.018 1.018 0 0 1 1.5.107 1.186 1.186 0 0 1-.1 1.599L4.323 8.884z"/>
</svg>
