<svg xmlns="http://www.w3.org/2000/svg" width="20" height="21" viewBox="0 0 20 21">
    <path fill="#253547" fill-opacity=".3" fill-rule="evenodd" d="M11.168.02a8.751 8.751 0 0 0 3.584 16.736c1.969 0 3.785-.649 5.248-1.744A10.51 10.51 0 0 1 10.508 21C4.705 21 0 16.299 0 10.5S4.705 0 10.508 0c.222 0 .442.007.66.02z"/>
</svg>
